{
  "type": "news_entry",
  "action": "save",
  "entry": {
    "presentation": "shell",
    "article_type": "post",
    "ads_enabled": 0,
    "comments_enabled": 1,
    "search_enabled": 0,
    "first_publication_date": 1513268700,
    "publication_date": 1517433660,
    "breaking_news": 0,
    "external_link": "",
    "native_ad": 0,
    "sponsor_label": "",
    "show_on_cover": 0,
    "cover_headline": "",
    "source_site_name": "",
    "editorial_notes": "All Purpose Embed Widget Test",
    "video_art_url": "",
    "breaking_news_alert": 0,
    "alert_type": null,
    "breaking_news_alert_title": "",
    "breaking_news_alert_delivery": "",
    "breaking_news_headline": "",
    "breaking_news_alert_email_body": "",
    "seo_slug": "All Purpose Embed Widget Test",
    "social_media_headline": "All Purpose Embed Widget k",
    "source_type": "author",
    "news_keywords": "",
    "standout_article": 0,
    "autoplay_video": 0,
    "canonical_url_override": "",
    "article_dek": "",
    "sponsored_by": "",
    "byline_display": "standard",
    "auto_curation": true,
    "hide_recommendations": false,
    "linked_sections": [
      "64"
    ],
    "linked_topics": [
      "19601",
      "24"
    ],
    "linked_sub_topics": [
      "18631"
    ],
    "source": [],
    "curated_list": [],
    "content": "<p>HELLO HELLO TETING BODY CONTENT 1</p><p>HELLO HELLO TETING BODY CONTENT 2</p><p>HELLO HELLO TETING BODY CONTENT 3</p><p>HELLO HELLO TETING BODY CONTENT 4</p>",
    "summary": "All Purpose Embed Widget Test",
    "hero": {
      "presentation": "default"
    },
    "main_art": {
      "fid": null,
      "url": null,
      "width": "0",
      "height": "0",
      "title": null,
      "alt_text": null,
      "caption": null,
      "crop_rect": null,
      "focus_rect": null,
      "byline": null,
      "copyright": null,
      "source": null,
      "use_video_art": 0
    },
    "social_media_image": null,
    "cover_image": {
      "fid": null,
      "url": null,
      "width": "0",
      "height": "0",
      "title": null,
      "alt_text": null,
      "caption": null,
      "crop_rect": null,
      "focus_rect": null,
      "byline": null,
      "copyright": null,
      "source": null,
      "use_video_art": 0
    },
    "tease_image": null,
    "storyline": [],
    "labels": [],
    "channel": [],
    "linked_channels": [],
    "section": [
      "64"
    ],
    "topic": [
      "19601"
    ],
    "sub_topic": [],
    "primary_vertical": [],
    "linked_vertical_subsections": [],
    "title": "All Purpose Embed Widge 11",
    "seo_headline": "All Purpose Embed Widge 11",
    "nid": "829701",
    "type": "news_entry",
    "revision_timestamp": 1540823181,
    "byline": [
      {
        "byline": "639521",
        "byline_type": "author"
      }
    ],
    "hidden": 0,
    "featuredAuthor": {
      "firstAuthorIsFeatured": false,
      "firstAuthorHasImage": false
    }
  },
  "messageId": "0700f2e7-efa8-4518-aaa4-e18ab6af751e",
  "user": "didarul.amin@nbcuni.com"
}